…
To check the number of distinct stations:

``` r
trans_ent %>% 
  select(station_name, line) %>% 
  distinct
```

    ## # A tibble: 465 × 2
    ##   station_name line    
    ##   <chr>        <chr>   
    ## 1 25th St      4 Avenue
    ## 2 36th St      4 Avenue
    ## 3 45th St      4 Avenue
    ## 4 53rd St      4 Avenue
    ## 5 59th St      4 Avenue
    ## # … with 460 more rows

To check the number of distinct stations that are ADA Compliant:

``` r
trans_ent %>% 
  filter(ada == TRUE) %>% 
  select(station_name, line) %>% 
  distinct
```

    ## # A tibble: 84 × 2
    ##   station_name             line           
    ##   <chr>                    <chr>          
    ## 1 Atlantic Av-Barclays Ctr 4 Avenue       
    ## 2 DeKalb Av                4 Avenue       
    ## 3 Pacific St               4 Avenue       
    ## 4 Grand Central            42nd St Shuttle
    ## 5 34th St                  6 Avenue       
    ## # … with 79 more rows
…
To check the distinct stations serving A trains (and the ones that are
ADA Compliant):

``` r
trans_ent %>% 
  pivot_longer(
    route1:route11,
    names_to = "route_num",
    values_to = "route") %>% 
  filter(route == "A") %>% 
  select(station_name, line) %>% 
  distinct
```

    ## # A tibble: 60 × 2
    ##   station_name                  line           
    ##   <chr>                         <chr>          
    ## 1 Times Square                  42nd St Shuttle
    ## 2 125th St                      8 Avenue       
    ## 3 145th St                      8 Avenue       
    ## 4 14th St                       8 Avenue       
    ## 5 168th St - Washington Heights 8 Avenue       
    ## # … with 55 more rows
…
